[gd_scene load_steps=4 format=2]

[ext_resource path="res://resources/theme/default_theme.tres" type="Theme" id=1]
[ext_resource path="res://resources/fonts/title_font.tres" type="DynamicFont" id=2]
[ext_resource path="res://scenes/StartMenu.gd" type="Script" id=3]

[node name="StartMenu" type="Control"]
anchor_right = 1.0
anchor_bottom = 1.0
theme = ExtResource( 1 )
script = ExtResource( 3 )
__meta__ = {
"_edit_use_anchors_": false
}

[node name="CenterContainer" type="CenterContainer" parent="."]
anchor_right = 1.0
anchor_bottom = 1.0
__meta__ = {
"_edit_use_anchors_": false
}

[node name="VBoxContainer" type="VBoxContainer" parent="CenterContainer"]
margin_left = 937.0
margin_top = 461.0
margin_right = 1111.0
margin_bottom = 739.0

[node name="Label" type="Label" parent="CenterContainer/VBoxContainer"]
margin_right = 174.0
margin_bottom = 128.0
custom_fonts/font = ExtResource( 2 )
custom_colors/font_color = Color( 0.619608, 0.101961, 0.101961, 1 )
text = "LIM"
align = 1

[node name="Button" type="Button" parent="CenterContainer/VBoxContainer"]
margin_top = 132.0
margin_right = 174.0
margin_bottom = 203.0
text = "Start"

[node name="OptionButton" type="OptionButton" parent="CenterContainer/VBoxContainer"]
margin_top = 207.0
margin_right = 174.0
margin_bottom = 278.0
[connection signal="pressed" from="CenterContainer/VBoxContainer/Button" to="." method="_on_Button_pressed"]
[connection signal="item_selected" from="CenterContainer/VBoxContainer/OptionButton" to="." method="_on_OptionButton_item_selected"]
