; Engine configuration file.
; It's best edited using the editor UI and not directly,
; since the parameters that go here are not all obvious.
;
; Format:
;   [section] ; section goes between []
;   param=value ; assign values to parameters

config_version=4

_global_script_classes=[  ]
_global_script_class_icons={

}

[application]

config/name="btp-jam-3"
run/main_scene="res://scenes/StartMenu.tscn"
config/icon="res://resources/img/icon.png"

[autoload]

Singleton="*res://scenes/Singleton.gd"

[display]

window/size/width=2048
window/size/height=1200
mouse_cursor/custom_image="res://resources/img/arrow.png"
window/stretch/mode="2d"
window/stretch/aspect="keep"

[rendering]

environment/default_clear_color=Color( 1, 1, 1, 1 )
environment/default_environment="res://default_env.tres"
